…
Join the datasets by merging snp into pols, and merging unemployment
into the result.

``` r
pols_snp_month<- left_join(pols_month,snp, by = c("year","month") )
pols_snp_unemployment_per_month <- left_join(pols_snp_month,unemployment,by = c("year","month")  )
pols_snp_unemployment_per_month
```

    ## # A tibble: 822 x 11
    ##     year month gov_gop sen_gop rep_gop gov_dem sen_dem rep_dem presidents
    ##    <dbl> <fct>   <dbl>   <dbl>   <dbl>   <dbl>   <dbl>   <dbl> <fct>     
    ##  1  1947 Janu…      23      51     253      23      45     198 dem       
    ##  2  1947 Febr…      23      51     253      23      45     198 dem       
    ##  3  1947 March      23      51     253      23      45     198 dem       
    ##  4  1947 April      23      51     253      23      45     198 dem       
    ##  5  1947 May        23      51     253      23      45     198 dem       
    ##  6  1947 June       23      51     253      23      45     198 dem       
    ##  7  1947 July       23      51     253      23      45     198 dem       
    ##  8  1947 Augu…      23      51     253      23      45     198 dem       
    ##  9  1947 Sept…      23      51     253      23      45     198 dem       
    ## 10  1947 Octo…      23      51     253      23      45     198 dem       
    ## # … with 812 more rows, and 2 more variables: close <dbl>,
    ## #   unemployment_rate <dbl>
…
    ## Parsed with column specification:
    ## cols(
    ##   `Year of Birth` = col_double(),
    ##   Gender = col_character(),
    ##   Ethnicity = col_character(),
    ##   `Child's First Name` = col_character(),
    ##   Count = col_double(),
    ##   Rank = col_double()
    ## )

``` r
Popular_Baby_Names
```

    ## # A tibble: 19,418 x 6
    ##    `Year of Birth` Gender Ethnicity          `Child's First Na… Count  Rank
    ##              <dbl> <chr>  <chr>              <chr>              <dbl> <dbl>
    ##  1            2016 FEMALE ASIAN AND PACIFIC… Olivia               172     1
    ##  2            2016 FEMALE ASIAN AND PACIFIC… Chloe                112     2
    ##  3            2016 FEMALE ASIAN AND PACIFIC… Sophia               104     3
    ##  4            2016 FEMALE ASIAN AND PACIFIC… Emily                 99     4
    ##  5            2016 FEMALE ASIAN AND PACIFIC… Emma                  99     4
    ##  6            2016 FEMALE ASIAN AND PACIFIC… Mia                   79     5
    ##  7            2016 FEMALE ASIAN AND PACIFIC… Charlotte             59     6
    ##  8            2016 FEMALE ASIAN AND PACIFIC… Sarah                 57     7
    ##  9            2016 FEMALE ASIAN AND PACIFIC… Isabella              56     8
    ## 10            2016 FEMALE ASIAN AND PACIFIC… Hannah                56     8
    ## # … with 19,408 more rows
…
